Accessing Twitter Data
…
---

# Get mentions

```r
ser_mentions <- get_mentions(token = ser_token())
```

---

# Get mentions

```
## # A tibble: 196 x 19
##    created_at          status_id text  truncated source
##    <dttm>              <chr>     <chr> <lgl>     <chr> 
##  1 2019-10-31 16:32:29 11899432… Infe… TRUE      "<a h…
##  2 2019-10-31 16:15:13 11899388… Do D… TRUE      "<a h…
##  3 2019-10-31 13:41:17 11899001… @sga… FALSE     "<a h…
##  4 2019-10-31 05:34:50 11897777… @DrR… TRUE      "<a h…
##  5 2019-10-31 02:00:10 11897237… @soc… TRUE      "<a h…
##  6 2019-10-30 18:45:20 11896142… "Ple… TRUE      "<a h…
##  7 2019-10-30 12:15:05 11895160… Infl… TRUE      "<a h…
##  8 2019-10-30 10:12:11 11894851… @soc… TRUE      "<a h…
##  9 2019-10-30 10:11:42 11894850… @soc… TRUE      "<a h…
## 10 2019-10-30 10:10:12 11894846… @soc… TRUE      "<a h…
## # … with 186 more rows, and 14 more variables:
## #   status_in_reply_to_status_id <chr>,
## #   status_in_reply_to_user_id <chr>,
## #   in_reply_to_screen_name <chr>, geo <lgl>,
## #   coordinates <lgl>, contributors <lgl>, …
```
…
# Most frequent mentioners

```r
mentioners <- lookup_tweets(
  ser_mentions$status_id, 
  token = ser_token()
)
```

---

# Most frequent mentioners

```
## # A tibble: 196 x 90
##    user_id status_id created_at          screen_name text 
##    <chr>   <chr>     <dttm>              <chr>       <chr>
##  1 209310… 11870249… 2019-10-23 15:16:14 Epi_D_Nique It’s…
##  2 209310… 11874620… 2019-10-24 20:13:20 Epi_D_Nique @jen…
##  3 296688… 11899388… 2019-10-31 16:15:13 epipubs     "Do …
##  4 296688… 11877331… 2019-10-25 14:10:26 epipubs     How …
##  5 296688… 11892281… 2019-10-29 17:10:57 epipubs     "It'…
##  6 296688… 11877657… 2019-10-25 16:20:04 epipubs     "In …
##  7 296688… 11851791… 2019-10-18 13:01:42 epipubs     "Dr.…
##  8 296688… 11848166… 2019-10-17 13:01:25 epipubs     "In …
##  9 296688… 11881281… 2019-10-26 16:20:04 epipubs     "Wha…
## 10 296688… 11895160… 2019-10-30 12:15:05 epipubs     "Inf…
## # … with 186 more rows, and 85 more variables:
## #   source <chr>, display_text_width <dbl>,
## #   reply_to_status_id <chr>, reply_to_user_id <chr>,
## #   reply_to_screen_name <chr>, is_quote <lgl>, …
```
…
```r
ser_tweets <- get_timeline(
  "societyforepi", 
  n = 1e5, 
  token = ser_token()
)
```

---

# Get SER tweets

```
## # A tibble: 3,229 x 90
##    user_id status_id created_at          screen_name text 
##    <chr>   <chr>     <dttm>              <chr>       <chr>
##  1 587813… 11899445… 2019-10-31 16:37:54 societyfor… "Do …
##  2 587813… 11899426… 2019-10-31 16:30:09 societyfor… In N…
##  3 587813… 11899280… 2019-10-31 15:32:16 societyfor… How …
##  4 587813… 11898897… 2019-10-31 13:00:00 societyfor… "202…
##  5 587813… 11895802… 2019-10-30 16:30:08 societyfor… #SER…
##  6 587813… 11893156… 2019-10-29 22:58:34 societyfor… Conv…
##  7 587813… 11893156… 2019-10-29 22:58:34 societyfor… Good…
##  8 587813… 11893155… 2019-10-29 22:58:20 societyfor… Shou…
##  9 587813… 11893155… 2019-10-29 22:58:20 societyfor… A 20…
## 10 587813… 11893154… 2019-10-29 22:58:00 societyfor… Time…
## # … with 3,219 more rows, and 85 more variables:
## #   source <chr>, display_text_width <dbl>,
## #   reply_to_status_id <chr>, reply_to_user_id <chr>,
## #   reply_to_screen_name <chr>, is_quote <lgl>, …
```
…
